<svg width="108px" height="78px" viewBox="0 0 108 78" version="1.1" xmlns="http://www.w3.org/2000/svg" xmlns:xlink="http://www.w3.org/1999/xlink">
    <g id="Page-1" stroke="none" stroke-width="1" fill="none" fill-rule="evenodd" stroke-linecap="round" stroke-linejoin="round">
        <g id="arrow-cursor" transform="translate(1.000000, 1.000000)" stroke="#F5F1E9" stroke-width="1.5">
            <path d="M105.45,37.5 L68.65,0.7 L58.75,10.6 L79.35,31.2 L0.45,31.2 L0.45,45.2 L79.35,45.2 L58.75,65.8 L68.65,75.7 L105.45,38.9 C105.831143,38.5111565 105.831143,37.8888435 105.45,37.5 Z" id="Path"></path>
        </g>
    </g>
</svg>
