<?xml version="1.0" encoding="UTF-8"?>
<svg width="691px" height="172px" viewBox="0 0 691 172" version="1.1" xmlns="http://www.w3.org/2000/svg" xmlns:xlink="http://www.w3.org/1999/xlink">
    <!-- Generator: Sketch 55.2 (78181) - https://sketchapp.com -->
    <title>SaucePan</title>
    <desc>Created with Sketch.</desc>
    <g id="All-Pages" stroke="none" stroke-width="1" fill="none" fill-rule="evenodd">
        <path d="M1.61,169.46 L1.61,120.47 L6.67,120.47 C14.95,120.47 13.34,124.38 14.95,135.19 C17.25,150.37 25.07,158.19 37.03,158.19 C48.76,158.19 57.04,148.99 57.04,134.5 C57.04,119.55 47.84,108.97 34.73,94.94 C15.41,74.24 0.92,61.13 0.92,39.97 C0.92,16.28 15.64,0.18 36.11,0.18 C46.92,0.18 52.67,3.86 55.66,3.86 C58.42,3.86 60.49,2.02 62.33,2.02 L68.77,2.02 L68.77,45.49 L62.1,45.49 C55.89,45.49 57.73,41.58 55.43,32.15 C52.44,19.73 47.61,13.52 37.72,13.52 C28.98,13.52 23.23,19.96 23.23,30.08 C23.23,42.73 31.74,49.86 43.01,61.82 C53.36,72.63 62.79,82.52 70.38,93.1 C76.59,102.07 79.81,112.42 79.81,124.61 C79.81,152.44 61.87,171.07 37.26,171.07 C26.68,171.07 20.01,167.16 17.02,167.16 C14.72,167.16 11.96,169.46 8.74,169.46 L1.61,169.46 Z M129.43,160.95 C124.37,168.08 117.47,171.76 108.5,171.76 C95.85,171.76 87.11,161.41 87.11,144.62 C87.11,123.69 99.53,111.27 126.44,102.76 L126.44,96.78 C126.44,83.9 125.06,77.46 117.01,77.46 C114.94,77.46 113.1,77.92 111.26,78.84 C112.64,82.29 113.33,85.05 113.33,87.35 C113.33,93.33 109.19,97.47 102.29,97.47 C94.47,97.47 90.1,92.87 90.1,85.28 C90.1,73.55 100.68,65.73 118.85,65.73 C130.58,65.73 139.78,69.87 145.07,77.23 C149.9,83.9 149.9,92.18 149.9,102.53 L149.9,149.45 C149.9,156.35 150.59,159.34 155.19,159.34 L156.57,159.34 L158.18,166.24 C153.81,169.46 148.98,171.3 144.38,171.3 C136.1,171.3 131.73,168.54 129.43,160.95 Z M126.44,115.87 C114.02,120.01 108.27,128.06 108.27,141.4 C108.27,149.91 111.95,154.51 117.47,154.51 C122.99,154.51 126.44,149.68 126.44,140.94 L126.44,115.87 Z M170.31,85.97 C170.31,83.67 170.08,81.83 168.24,79.99 C167.09,79.07 164.79,78.38 164.79,75.39 L164.79,68.49 L193.54,67.57 L193.54,137.03 C193.54,148.53 194.69,154.28 201.36,154.28 C205.27,154.28 208.72,152.21 211.94,148.53 L211.94,85.97 C211.94,83.67 211.71,81.83 209.87,79.99 C208.72,79.07 206.42,78.38 206.42,75.39 L206.42,68.49 L235.4,67.57 L235.4,150.37 C235.4,152.9 235.63,154.74 238.16,156.58 C239.77,157.73 242.53,158.42 242.53,161.18 L242.53,168.31 L212.4,170.61 L212.4,159.34 C205.73,167.16 198.6,171.07 190.32,171.07 C172.61,171.07 170.31,158.65 170.31,134.5 L170.31,85.97 Z M316.76,138.41 C314,160.72 303.88,171.76 285.94,171.76 C264.78,171.76 251.21,153.82 251.21,122.31 C251.21,86.2 266.39,65.73 289.85,65.73 C305.95,65.73 316.53,75.16 316.53,87.81 C316.53,95.63 311.47,100.92 303.88,100.92 C297.21,100.92 292.84,96.55 292.84,90.34 C292.84,86.2 294.68,82.98 298.13,80.68 C296.75,78.61 294.22,77.23 290.77,77.23 C279.96,77.23 276.28,88.5 276.28,111.96 L276.28,126.68 C276.28,146 281.34,155.43 291.46,155.43 C299.51,155.43 303.88,149.22 305.49,136.11 L316.76,138.41 Z M347.52,119.55 L347.52,125.76 C347.52,146.69 350.05,156.12 361.32,156.12 C368.45,156.12 373.28,149.91 374.66,138.18 L386.39,140.25 C383.86,161.41 373.97,171.76 356.26,171.76 C334.87,171.76 322.22,154.51 322.22,122.77 C322.22,86.2 335.56,65.73 355.57,65.73 C377.65,65.73 387.08,83.21 387.08,119.55 L347.52,119.55 Z M347.52,106.67 L366.38,106.67 L366.38,101.15 C366.38,85.05 363.62,77.23 356.95,77.23 C351.2,77.23 347.52,85.05 347.52,99.77 L347.52,106.67 Z M464.7,2.94 C481.72,2.94 495.52,2.94 507.25,8.46 C521.05,14.9 529.33,28.93 529.33,46.64 C529.33,77.92 511.62,93.1 475.28,93.1 L474.36,93.1 L474.36,149.68 C474.36,152.67 474.82,154.51 478.5,157.27 C480.34,158.65 482.64,159.11 482.64,162.56 L482.64,169 L440.55,169 L440.55,162.56 C440.55,158.88 442.62,158.65 444.46,157.27 C448.14,154.28 448.37,151.98 448.37,148.07 L448.37,21.8 C448.37,19.27 448.14,16.97 445.15,14.44 C443.77,13.29 441.93,13.06 441.93,9.38 L441.93,2.94 L464.7,2.94 Z M474.36,16.74 L474.36,79.3 L476.66,79.3 C495.98,79.3 501.96,70.33 501.96,48.02 C501.96,25.71 495.98,16.74 476.66,16.74 L474.36,16.74 Z M577.8,160.95 C572.74,168.08 565.84,171.76 556.87,171.76 C544.22,171.76 535.48,161.41 535.48,144.62 C535.48,123.69 547.9,111.27 574.81,102.76 L574.81,96.78 C574.81,83.9 573.43,77.46 565.38,77.46 C563.31,77.46 561.47,77.92 559.63,78.84 C561.01,82.29 561.7,85.05 561.7,87.35 C561.7,93.33 557.56,97.47 550.66,97.47 C542.84,97.47 538.47,92.87 538.47,85.28 C538.47,73.55 549.05,65.73 567.22,65.73 C578.95,65.73 588.15,69.87 593.44,77.23 C598.27,83.9 598.27,92.18 598.27,102.53 L598.27,149.45 C598.27,156.35 598.96,159.34 603.56,159.34 L604.94,159.34 L606.55,166.24 C602.18,169.46 597.35,171.3 592.75,171.3 C584.47,171.3 580.1,168.54 577.8,160.95 Z M574.81,115.87 C562.39,120.01 556.64,128.06 556.64,141.4 C556.64,149.91 560.32,154.51 565.84,154.51 C571.36,154.51 574.81,149.68 574.81,140.94 L574.81,115.87 Z M655.71,169 L655.71,162.1 C655.71,159.11 658.01,158.42 659.16,157.27 C661,155.43 661.23,153.59 661.23,151.29 C661.23,150.14 661.23,148.99 661.23,147.61 L661.23,99.77 C661.23,88.27 660.31,82.75 653.64,82.75 C649.73,82.75 646.05,84.59 642.83,88.27 L642.83,147.61 C642.83,148.53 642.83,149.68 642.83,150.37 C642.83,153.13 643.06,155.2 645.13,157.27 C646.28,158.42 648.58,159.34 648.58,162.1 L648.58,169 L613.85,169 L613.85,162.1 C613.85,159.11 616.15,158.42 617.3,157.27 C619.37,155.2 619.6,153.13 619.6,150.37 C619.6,149.68 619.6,148.53 619.6,147.61 L619.6,89.65 C619.6,88.5 619.6,87.58 619.6,86.89 C619.6,84.13 619.37,82.06 617.3,79.99 C616.15,79.07 613.85,78.38 613.85,75.39 L613.85,68.49 L642.37,67.57 L642.37,77.46 C649.04,69.64 656.4,65.73 663.76,65.73 C682.39,65.73 684.69,77.46 684.69,102.3 L684.69,147.61 C684.69,148.99 684.69,150.14 684.69,151.29 C684.69,153.59 684.92,155.43 686.76,157.27 C687.91,158.42 690.21,159.34 690.21,162.1 L690.21,169 L655.71,169 Z" id="SaucePan" fill="#F5F1E9" fill-rule="nonzero"></path>
    </g>
</svg>